{
    "code": 200,
    "status": "success",
    "current_page": 1,
    "data": [
        {
            "athlete_id": 11378,
            "athlete_title": "Jonathan Brownlee",
            "athlete_first": "Jonathan",
            "athlete_last": "Brownlee",
            "athlete_country_id": 292,
            "athlete_gender": "male",
            "athlete_yob": "1990",
            "validated": true,
            "athlete_profile_image": "https:\/\/cms.triathlon.org\/assets\/c91c35fa-3162-4c7d-9531-751ffec81a67\/jonny_brownlee_GBR.jpg",
            "athlete_noc": "GBR",
            "athlete_country_name": "Great Britain",
            "athlete_country_isoa2": "GB",
            "athlete_listing": "https:\/\/www.triathlon.org\/athletes\/profile\/11378\/jonathan-brownlee",
            "athlete_flag": "https:\/\/cms.triathlon.org\/assets\/b75caa96-a00b-4e93-a4b7-4fea6d8efa5f\/GBR.svg",
            "athlete_api_listing": "https:\/\/api.triathlon.org\/v1\/athletes\/11378",
            "athlete_categories": [
                "athlete"
            ],
            "points_list_ranking": 265
        },
        {
            "athlete_id": 7788,
            "athlete_title": "Alistair Brownlee",
            "athlete_first": "Alistair",
            "athlete_last": "Brownlee",
            "athlete_country_id": 292,
            "athlete_gender": "male",
            "athlete_yob": "1988",
            "validated": true,
            "athlete_profile_image": "https:\/\/cms.triathlon.org\/assets\/59ec5222-2a7e-4037-8878-ceaf8d799b71\/ali_brownlee_GBR.jpg",
            "athlete_noc": "GBR",
            "athlete_country_name": "Great Britain",
            "athlete_country_isoa2": "GB",
            "athlete_listing": "https:\/\/www.triathlon.org\/athletes\/profile\/7788\/alistair-brownlee",
            "athlete_flag": "https:\/\/cms.triathlon.org\/assets\/b75caa96-a00b-4e93-a4b7-4fea6d8efa5f\/GBR.svg",
            "athlete_api_listing": "https:\/\/api.triathlon.org\/v1\/athletes\/7788",
            "athlete_categories": [
                "athlete"
            ],
            "points_list_ranking": null
        },
        {
            "athlete_id": 20753,
            "athlete_title": "Ian Brownlee",
            "athlete_first": "Ian",
            "athlete_last": "Brownlee",
            "athlete_country_id": 181,
            "athlete_gender": "male",
            "athlete_yob": "1949",
            "validated": false,
            "athlete_profile_image": null,
            "athlete_noc": "HKG",
            "athlete_country_name": "Hong Kong China",
            "athlete_country_isoa2": "HK",
            "athlete_listing": "https:\/\/www.triathlon.org\/athletes\/profile\/20753\/ian-brownlee",
            "athlete_flag": "https:\/\/cms.triathlon.org\/assets\/9d799780-5a5e-4d0d-ba68-c0c8a73ac124\/HKG.svg",
            "athlete_api_listing": "https:\/\/api.triathlon.org\/v1\/athletes\/20753",
            "athlete_categories": [
                "athlete"
            ],
            "points_list_ranking": null
        },
        {
            "athlete_id": 20227,
            "athlete_title": "Jarrad Brownlee",
            "athlete_first": "Jarrad",
            "athlete_last": "Brownlee",
            "athlete_country_id": 181,
            "athlete_gender": "male",
            "athlete_yob": null,
            "validated": false,
            "athlete_profile_image": null,
            "athlete_noc": "HKG",
            "athlete_country_name": "Hong Kong China",
            "athlete_country_isoa2": "HK",
            "athlete_listing": "https:\/\/www.triathlon.org\/athletes\/profile\/20227\/jarrad-brownlee",
            "athlete_flag": "https:\/\/cms.triathlon.org\/assets\/9d799780-5a5e-4d0d-ba68-c0c8a73ac124\/HKG.svg",
            "athlete_api_listing": "https:\/\/api.triathlon.org\/v1\/athletes\/20227",
            "athlete_categories": [
                "athlete"
            ],
            "points_list_ranking": null
        },
        {
            "athlete_id": 19312,
            "athlete_title": "Alisa Brownlee",
            "athlete_first": "Alisa",
            "athlete_last": "Brownlee",
            "athlete_country_id": 135,
            "athlete_gender": "female",
            "athlete_yob": "1967",
            "validated": false,
            "athlete_profile_image": null,
            "athlete_noc": "CAN",
            "athlete_country_name": "Canada",
            "athlete_country_isoa2": "CA",
            "athlete_listing": "https:\/\/www.triathlon.org\/athletes\/profile\/19312\/alisa-brownlee",
            "athlete_flag": "https:\/\/cms.triathlon.org\/assets\/9c815286-2883-4fb9-999f-4dde18b5e168\/CAN.svg",
            "athlete_api_listing": "https:\/\/api.triathlon.org\/v1\/athletes\/19312",
            "athlete_categories": [
                "athlete"
            ],
            "points_list_ranking": null
        },
        {
            "athlete_id": 160902,
            "athlete_title": "Shona Brownlee",
            "athlete_first": "Shona",
            "athlete_last": "Brownlee",
            "athlete_country_id": 292,
            "athlete_gender": "female",
            "athlete_yob": "1979",
            "validated": false,
            "athlete_profile_image": null,
            "athlete_noc": "GBR",
            "athlete_country_name": "Great Britain",
            "athlete_country_isoa2": "GB",
            "athlete_listing": "https:\/\/www.triathlon.org\/athletes\/profile\/160902\/shona-brownlee",
            "athlete_flag": "https:\/\/cms.triathlon.org\/assets\/b75caa96-a00b-4e93-a4b7-4fea6d8efa5f\/GBR.svg",
            "athlete_api_listing": "https:\/\/api.triathlon.org\/v1\/athletes\/160902",
            "athlete_categories": [
                "paratriathlete"
            ],
            "points_list_ranking": null
        },
        {
            "athlete_id": 151915,
            "athlete_title": "Kira Brownlee",
            "athlete_first": "Kira",
            "athlete_last": "Brownlee",
            "athlete_country_id": 181,
            "athlete_gender": "female",
            "athlete_yob": null,
            "validated": false,
            "athlete_profile_image": null,
            "athlete_noc": "HKG",
            "athlete_country_name": "Hong Kong China",
            "athlete_country_isoa2": "HK",
            "athlete_listing": "https:\/\/www.triathlon.org\/athletes\/profile\/151915\/kira-brownlee",
            "athlete_flag": "https:\/\/cms.triathlon.org\/assets\/9d799780-5a5e-4d0d-ba68-c0c8a73ac124\/HKG.svg",
            "athlete_api_listing": "https:\/\/api.triathlon.org\/v1\/athletes\/151915",
            "athlete_categories": [
                "athlete"
            ],
            "points_list_ranking": null
        },
        {
            "athlete_id": 8645,
            "athlete_title": "Jody Brownley",
            "athlete_first": "Jody",
            "athlete_last": "Brownley",
            "athlete_country_id": 111,
            "athlete_gender": "female",
            "athlete_yob": "1974",
            "validated": false,
            "athlete_profile_image": null,
            "athlete_noc": "AUS",
            "athlete_country_name": "Australia",
            "athlete_country_isoa2": "AU",
            "athlete_listing": "https:\/\/www.triathlon.org\/athletes\/profile\/8645\/jody-brownley",
            "athlete_flag": "https:\/\/cms.triathlon.org\/assets\/8ffa9ee3-ea13-4c4e-ac81-11af20580c7e\/AUS.svg",
            "athlete_api_listing": "https:\/\/api.triathlon.org\/v1\/athletes\/8645",
            "athlete_categories": [
                "athlete"
            ],
            "points_list_ranking": null
        },
        {
            "athlete_id": 123831,
            "athlete_title": "Dale Brownless",
            "athlete_first": "Dale",
            "athlete_last": "Brownless",
            "athlete_country_id": 292,
            "athlete_gender": "male",
            "athlete_yob": "1978",
            "validated": false,
            "athlete_profile_image": null,
            "athlete_noc": "GBR",
            "athlete_country_name": "Great Britain",
            "athlete_country_isoa2": "GB",
            "athlete_listing": "https:\/\/www.triathlon.org\/athletes\/profile\/123831\/dale-brownless",
            "athlete_flag": "https:\/\/cms.triathlon.org\/assets\/b75caa96-a00b-4e93-a4b7-4fea6d8efa5f\/GBR.svg",
            "athlete_api_listing": "https:\/\/api.triathlon.org\/v1\/athletes\/123831",
            "athlete_categories": [
                "athlete"
            ],
            "points_list_ranking": null
        },
        {
            "athlete_id": 108068,
            "athlete_title": "Brynlee Thomas",
            "athlete_first": "Brynlee",
            "athlete_last": "Thomas",
            "athlete_country_id": 135,
            "athlete_gender": "female",
            "athlete_yob": "1992",
            "validated": false,
            "athlete_profile_image": null,
            "athlete_noc": "CAN",
            "athlete_country_name": "Canada",
            "athlete_country_isoa2": "CA",
            "athlete_listing": "https:\/\/www.triathlon.org\/athletes\/profile\/108068\/brynlee-thomas",
            "athlete_flag": "https:\/\/cms.triathlon.org\/assets\/9c815286-2883-4fb9-999f-4dde18b5e168\/CAN.svg",
            "athlete_api_listing": "https:\/\/api.triathlon.org\/v1\/athletes\/108068",
            "athlete_categories": [
                "athlete"
            ],
            "points_list_ranking": null
        }
    ],
    "first_page_url": "https:\/\/api.triathlon.org\/v1\/search?query=brownlee&collection=athletes&page=1",
    "from": 1,
    "last_page": 3,
    "last_page_url": "https:\/\/api.triathlon.org\/v1\/search?query=brownlee&collection=athletes&page=3",
    "links": [
        {
            "url": null,
            "label": "&laquo; Previous",
            "active": false
        },
        {
            "url": "https:\/\/api.triathlon.org\/v1\/search?query=brownlee&collection=athletes&page=1",
            "label": "1",
            "active": true
        },
        {
            "url": "https:\/\/api.triathlon.org\/v1\/search?query=brownlee&collection=athletes&page=2",
            "label": "2",
            "active": false
        },
        {
            "url": "https:\/\/api.triathlon.org\/v1\/search?query=brownlee&collection=athletes&page=3",
            "label": "3",
            "active": false
        },
        {
            "url": "https:\/\/api.triathlon.org\/v1\/search?query=brownlee&collection=athletes&page=2",
            "label": "Next &raquo;",
            "active": false
        }
    ],
    "next_page_url": "https:\/\/api.triathlon.org\/v1\/search?query=brownlee&collection=athletes&page=2",
    "path": "https:\/\/api.triathlon.org\/v1\/search",
    "per_page": 10,
    "prev_page_url": null,
    "to": 10,
    "total": 26
}